<?xml version="1.0" encoding="utf-8"?>
<!-- Generator: Adobe Illustrator 21.0.1, SVG Export Plug-In . SVG Version: 6.00 Build 0)  -->
<svg version="1.1" id="Layer_1" xmlns="http://www.w3.org/2000/svg" xmlns:xlink="http://www.w3.org/1999/xlink" x="0px" y="0px"
	 viewBox="0 0 461 191.9" style="enable-background:new 0 0 461 191.9;" xml:space="preserve">
<style type="text/css">
	.st0{fill:#1EA2A7;}
	.st1{fill:#F8C00A;}
	.st2{fill:#F01A20;}
	.st3{fill:#292728;}
</style>
<g>
	<path class="st0" d="M271.9,95.4c1.4,2.3,3.9,0.5,1.4-5.5c-0.5-0.5-0.7-1.1-0.9-1.7c-1.3-3.7-1.8-7.5-1.7-11.5c0-0.6,0.7-7,1.4-9.6
		c2.6-9.9,7.6-18.6,14-26.5c8.1-10,17.9-17.9,29.4-23.6c8.9-4.4,18.3-7.2,28.3-8c12.2-1,23.7,1.2,34.8,6.2c4.2,1.8,8.2,4.1,12,6.5
		c0.5,0.3,6.1,4.2,6.8,4.8c5.9,4.6,11.3,9.7,16.3,15.2c6,6.5,11.2,13.6,16.1,20.9c0.2,0.2,0.3,0.5,0.5,0.7c0.8,1,1.8,1.2,2.8,0.5
		c0.9-0.6,1-1.6,0.4-2.6c-1.9-3-3.9-5.8-6-8.7c-5.4-7.4-11.3-14.3-17.9-20.6c-1.9-1.9-4-3.6-6-5.4c-0.3-0.3-6.8-5.2-7.6-5.8
		c-6.8-4.9-14.2-8.7-22.2-11.5c-12.1-4.2-24.4-5.2-36.9-3.2c-11.6,1.9-22.3,6.2-32.1,12.6c-6.6,4.3-12.6,9.4-17.9,15.2
		c-5.2,5.7-9.6,11.8-13.1,18.6c-2.7,5.1-4.7,10.5-5.9,16.2c-0.2,1-1.5,7.1-0.5,15.6C267.9,88.3,269.8,91.8,271.9,95.4z"/>
</g>
<g>
	<path class="st1" d="M401,164c0.1-0.3,0.8-2.9,0.8-3.2c0.7-5.7,0.4-11.3-1.1-16.9c-2.5-9-7-16.9-12.3-24.5c-1.6-2.4-3.4-4.6-5.1-7
		c-0.9-1.2-1.8-1.4-2.7-0.7c-1,0.8-1.2,2-0.4,3.1c2.9,3.7,5.8,7.5,8.2,11.5c2.1,3.4,4.1,6.9,5.6,10.6c1.3,3,2.4,6,3.1,9.1
		c1.4,5.4,1.8,10.8,0.2,16.2c-0.3,1.1-2.1,7.1-6.9,11.3c-4.6,4-9.8,6.8-15.6,8.4c-2.6,0.7-5.2,1.3-7.8,1.6c-4,0.5-8,0.8-12,0.6
		c-3.7-0.1-7.4-0.5-11.1-1.1c-5-0.8-9.9-2-14.7-3.7c-6.6-2.3-12.9-5.2-18.7-8.9c-8.6-5.5-16-12.3-21.8-20.6
		c-3.5-5-6.3-10.5-8.4-16.3c-1.8-4.9-2.9-9.8-3.7-14.9c-0.9-5.9-1.5-12-0.6-17.9c2.7-18.4,6.6-31.3,6.9-32.1
		c1.5-4.3,3.3-8.6,5.1-12.8c1.3-2.9,2.7-5.7,4-8.6c0.6-1.3,0.2-2.5-1-3c-1.1-0.5-1.9,0-2.6,1.4c-2.7,5.3-5.1,10.6-7.2,16.1
		c-0.8,2.1-1.6,4.3-2.4,6.4c-0.2,0.6-2.9,8.9-3.6,12.1c-0.6,3.1-1.3,6.1-2.1,9.3c-0.5,3-0.7,6.6-0.8,8c-0.4,3.8-0.5,8-0.5,11.8
		c0,0.3,0.5,7.5,0.6,8.5c0.8,5.8,2.1,11.5,4.1,17c2.8,7.9,6.9,15.1,12.3,21.5c6,7.3,13.1,13.4,21.2,18.2c9.7,5.8,20.1,9.8,31.2,11.8
		c5.6,1,11.1,1.5,16.8,1.5c7,0,13.7-0.9,20.3-3.1c6.2-2,11.7-5.2,16.2-10c1.4-1.6,2.8-3.2,3.8-5.1C399.2,168.5,400.8,164.7,401,164z
		"/>
</g>
<g>
	<path class="st2" d="M445.7,69.2c-2-7.3-4.7-14.3-8.4-21c-4-7.2-9-13.6-15.5-18.7c-6.7-5.3-14.2-8.6-23-8c-1.1,0.1-5.1,0.4-6.8,1.1
		c-1.3,0.6-2.6,1.1-3.7,1.6c-6,2.8-10.7,7.1-14.9,12.1c-5.3,6.3-9.2,13.5-12.5,21c-0.8,1.9-1.6,3.8-2.4,5.7
		c-0.7,1.6-0.4,2.7,0.7,3.1c1.2,0.5,2.3-0.1,3-1.8c1.9-4.6,3.8-9.1,6.2-13.4c4-7.2,8.6-13.9,15.2-19.1c3.4-2.7,7.2-4.8,11.5-5.8
		c0.9-0.2,5.6-0.7,7.7-0.5c4.1,0.3,7.8,1.7,11.2,3.6c7.5,4.3,13.1,10.5,17.7,17.7c4.4,6.7,7.4,14.1,9.7,21.7c0,0.1,0.1,0.3,0.1,0.4
		c5.5,23.9,0,48-0.4,49.4c-1.3,3.8-2.9,7.4-4.8,11c-3.2,6-7.2,11.4-12,16.3c-5.7,5.8-12.2,10.7-19.4,14.5c-0.8,0.4-1.6,0.9-2.4,1.3
		c-0.2,0.1-6.1,2.9-7.3,3.3c-7.3,3-14.8,5.1-22.4,6.7c-5.4,1.1-10.9,2-16.5,2.5c-2.8,0.3-5.6,0.7-8.5,0.6c-0.8,0-1.5,0.1-2,0.8
		c-0.4,0.7-0.7,1.4-0.3,2.2c0.4,0.8,1.2,1.1,2.1,0.9c1.3-0.2,2.6-0.4,3.9-0.4c7.8-0.3,15.4-1.5,23-3c5.9-1.2,11.7-2.8,17.4-4.8
		c0.5-0.2,7.9-3.2,9.6-4c8.4-3.7,16-8.6,22.7-14.8c4.6-4.1,8.5-8.9,11.9-14.1c3.9-6.1,7-12.5,9.1-19.4
		C445.7,116.7,451.9,91.4,445.7,69.2z"/>
</g>
<g>
	<path class="st3" d="M452.3,93.8c-0.9-0.5-1.8-0.9-2.8-1.5c0.5-0.3,0.8-0.5,1.2-0.7c4.5-2.8,6.5-8.4,4.6-13.3
		c-1.3-3.4-3.9-5.4-7.2-6.5c-1.4-0.5-4.9-1.5-7.5-1.6c-8.7-0.5-17.5-0.1-26.2-0.2c-1,0-1.4,0.4-1.4,1.4c0,14.7,0,29.4,0,44.2
		c0,1.2,0.4,1.5,1.5,1.5c8.5,0,17.1,0,25.6,0c1.5,0,6.1-0.9,7.4-1.2c1.1-0.2,2.1-0.7,3.1-1.2C459.4,110.2,459.1,97.8,452.3,93.8z
		 M426.8,79.5c1.8,0,3.5,0,5.7,0c2,0.1,4.4-0.3,6.8,0.4c3,0.9,4.3,3.6,3.1,6.4c-0.8,1.8-2.4,2.4-4.1,2.7c-3.9,0.5-7.8,0.2-11.6,0.3
		c-0.7,0-1-0.4-1-1c0-2.5,0-5.1,0-7.6C425.6,79.6,426.1,79.5,426.8,79.5z M444.1,103.9c-0.7,2.2-2.5,3-4.6,3.3
		c-4.2,0.5-8.5,0.2-12.8,0.3c-0.8,0-1-0.3-1-1.1c0-2.7,0-5.3,0-8c0-0.9,0.4-1.1,1.2-1.1c1.8,0,3.6,0,5.6,0c2.2,0,4.7-0.1,7.2,0.2
		C443.2,98,445,100.6,444.1,103.9z"/>
	<path class="st3" d="M276.4,116.9c-3.9-5.4-12.9-17.9-16.9-23.3c-0.6-0.9-0.6-1.5,0-2.3c2.4-3.2,11.5-15.7,11.9-16.2
		c1-1.4,2.1-2.8,3.1-4.2c0.1-0.2,0.4-0.4,0.3-0.6c-0.1-0.4-0.5-0.3-0.7-0.3c-2.3-0.2-6.8,0.1-7.8,0c-1.4-0.1-2.8,0-4.3,0
		c-1.1-0.1-1.8,0.4-2.5,1.3c-3.6,5.3-7.3,10.5-11,15.7c-0.6,0.9-1.3,1.2-2.3,1.2c-1.3-0.1-2.6,0-3.9-0.1c-1.6,0-1.6-0.1-1.6-1.6
		c0-5,0-10,0-14.9c0-1.1-0.3-1.6-1.5-1.6c-3.7,0-7.4,0-11.2,0c-0.9,0-1.2,0.2-1.2,1.2c0,14.8,0,29.6,0,44.4c0,1.1,0.4,1.4,1.5,1.4
		c3.5,0,7,0,10.5,0c1.9,0,1.9,0,1.9-1.9c0-4.8,0-9.5,0-14.3c0-1.1,0.3-1.5,1.4-1.5c1.1,0.1,2.3,0.1,3.4,0c1.5-0.1,2.4,0.4,3.2,1.6
		c3.5,5.1,7.1,10,10.6,15.1c0.5,0.7,1,1,1.9,1c3.3,0,6.7,0,10,0C272.1,116.9,276.5,117.2,276.4,116.9z"/>
	<path class="st3" d="M325,104.7c0.1-3,0-6,0-9c0-8,0-16,0-24c0-1.8,0-1.8-1.8-1.8c-3.5,0-7,0-10.5,0c-1.1,0-1.5,0.4-1.5,1.5
		c0,7.4,0,14.8,0,22.2c0,2.1-0.3,4.1-1.1,6c-0.8,2.1-2.3,3.7-4.3,4.7c-3.2,1.6-6.5,1.6-9.7,0.4c-2.2-0.8-3.5-2.6-4.2-4.7
		c-0.6-1.7-0.7-3.4-0.7-5.2c0-7.7,0-15.4,0-23.1c0-1.8,0-1.9-1.9-1.9c-1.8,0-3.7,0-5.5,0c-0.8,0-5.1-0.1-5.9,0
		c-0.5,0.1-0.6,0.5-0.5,0.9c0.4,3.5-0.9,25.3,0.6,32.1c1.8,8.2,7.8,13.7,16.2,14.6c4.8,0.5,9.4,0,13.7-2.5c1.3-0.8,2.5-1.8,3.8-2.9
		c0.3,1.3,0.2,2.5,0.2,3.6c0,1,0.4,1.3,1.3,1.3c3.6,0,7.1,0,10.7,0c1.1,0,1.4-0.4,1.4-1.4c0-1.5,0-3,0-4.5
		C325,110.1,325,105.7,325,104.7z"/>
	<path class="st3" d="M59.4,86.3c0,9.7,0,19.5,0,29.2c0,1.2-0.4,1.4-1.5,1.4c-3.7,0-7.4-0.1-11.2,0c-1.3,0-1.6-0.4-1.6-1.7
		c0-15.2,0-30.4,0-45.5c0-2.1,0-2.1-2-2.1c-7.9,0-15.7,0-23.6,0c-1.3,0-1.6,0.4-1.6,1.7c0,15.2,0,30.4,0,45.7c0,1.9,0,1.9-1.9,1.9
		c-3.6,0-7.2,0-10.8,0c-1.2,0-1.5-0.4-1.5-1.5c0-19.4,0-38.9,0-58.3c0-1,0.4-1.3,1.3-1.3c17.7,0,35.4,0,53.1,0
		c0.9,0,1.3,0.2,1.3,1.3C59.4,66.8,59.4,76.6,59.4,86.3z"/>
	<path class="st3" d="M172.5,93.4c0.3,12.7-9.3,22.8-22.2,24c-6.9,0.7-13.4-0.4-19.1-4.3c-6.6-4.5-9.9-10.8-10.2-18.7
		c-0.3-8.9,3.1-16,10.6-20.9c5.2-3.5,11.1-4.6,17.3-4.2c4.4,0.3,8.5,1.3,12.2,3.6C168.8,77.6,172.4,84.5,172.5,93.4z M146.7,80.7
		c-5.1,0-9.1,2.6-10.9,7.3c-0.9,2.4-1,4.9-0.8,7.4c0.9,9.6,10.5,13.1,17.4,9.4c4.9-2.6,6.2-7.2,6-12.3
		C158.3,85.4,153.6,80.7,146.7,80.7z"/>
	<path class="st3" d="M115.2,93.5c0,7.2,0,14.5,0,21.7c0,1.7,0,1.7-1.7,1.7c-3.6,0-7.1,0-10.7,0c-1.2,0-1.6-0.4-1.6-1.6
		c0-10.7,0-21.5,0-32.2c0-1.8,0-1.8-1.8-1.8c-3.8,0-7.5,0-11.3,0c-1,0-1.4,0.3-1.5,1.3c-0.4,4.8-0.4,9.7-0.9,14.5
		c-0.6,4.9-1.2,9.8-3.6,14.2c-2.8,5.1-6.6,7.1-13,6.5c-1.3-0.1-2.6-0.4-4-0.7c-0.8-0.1-1.2-0.6-1.1-1.5c0.2-3,0.4-6.1,0.5-9.1
		c0-0.7,0.4-1,1.1-1c0.8,0,1.7,0.1,2.5-0.1c2-0.4,3.2-1.8,4-3.6c1.2-2.9,1.5-6,1.6-9.1c0.3-7,0.6-14,0.8-21c0.1-1.7,0.1-1.8,1.8-1.8
		c12.3,0,24.6,0,36.9,0c1.7,0,1.7,0,1.7,1.8C115.2,79,115.2,86.2,115.2,93.5z"/>
	<path class="st3" d="M201.3,117.7c-7.4-0.1-13.7-1.8-18.9-6.5c-6.1-5.4-8.5-12.4-7.7-20.4c1.2-12.7,11.7-20.7,23.7-21.4
		c5.7-0.3,11.1,0.5,16,3.4c3,1.8,5.3,4.3,7,7.4c0.4,0.8,0.5,1.3-0.5,1.8c-3,1.5-5.9,3.1-8.8,4.7c-0.6,0.4-1,0.3-1.4-0.4
		c-3.7-6.3-11.3-6.8-16.2-4c-2.7,1.6-4.5,3.9-5.2,6.9c-0.7,2.8-0.8,5.7,0,8.6c1.3,4.6,4.4,7.4,9,8.2c5,1,9.2-0.6,12.1-4.9
		c0.7-1,1.2-1.3,2.3-0.6c2.7,1.6,5.4,3,8.1,4.4c1,0.5,1,1.1,0.5,2c-3.3,5.9-8.5,8.9-14.9,10.2C204.6,117.5,202.7,117.7,201.3,117.7z
		"/>
	<path class="st3" d="M207.7,131.7c0-1,0-1.9,0-2.9c0-0.8,0.6-1.1,1.2-0.7c0.6,0.4,1.1,0.2,1.6,0c1-0.4,2-0.3,2.9,0.4
		c0.5,0.4,0.9,0.5,1.5,0.1c2.3-1.5,4.8-0.3,5.1,2.4c0.1,1.1,0.1,2.3,0.1,3.4c0,0.6-0.1,1.1-0.9,1.1c-0.8,0-0.8-0.5-0.9-1.1
		c0-1,0-2,0-3c0-1-0.3-1.8-1.5-1.9c-1.2-0.1-2,0.5-2.1,1.8c-0.1,1,0,1.9-0.1,2.9c0,0.6,0.2,1.4-0.8,1.3c-0.9,0-0.7-0.7-0.8-1.3
		c0-1,0-1.9,0-2.9c-0.1-1.3-0.6-1.8-1.7-1.8c-1.2,0-1.9,0.6-1.9,1.8c-0.1,0.9,0,1.8,0,2.8c0,0.6,0.2,1.4-0.8,1.4
		c-1,0-0.8-0.8-0.8-1.4C207.7,133.3,207.7,132.5,207.7,131.7C207.7,131.7,207.7,131.7,207.7,131.7z"/>
	<path class="st3" d="M121.7,131.7c0-0.9,0-1.8,0-2.6c0-1.1,0.4-1.4,1.4-0.9c0.5,0.2,0.8,0.1,1.2,0c1.2-0.5,2.3-0.4,3.3,0.4
		c0.4,0.4,0.7,0.3,1.2,0c2.6-1.6,5-0.5,5.3,2.5c0.1,1,0.1,2.1,0.1,3.1c0,0.6-0.1,1.2-0.9,1.2c-0.8,0-0.8-0.6-0.8-1.2
		c0-1,0-2.1,0-3.1c0-1-0.5-1.7-1.5-1.8c-1.1-0.1-1.9,0.5-2.1,1.6c-0.1,1-0.1,2.1-0.1,3.1c0,0.6,0.2,1.4-0.8,1.3
		c-0.9,0-0.7-0.7-0.8-1.3c0-1,0-1.9,0-2.9c0-1.3-0.6-1.8-1.7-1.8c-1.2,0-1.9,0.6-1.9,1.8c-0.1,1,0,2.1,0,3.1c0,0.5,0,1-0.8,1.1
		c-0.8,0-0.8-0.5-0.8-1.1C121.7,133.4,121.7,132.6,121.7,131.7z"/>
	<path class="st3" d="M37.2,131.7c0-1,0-1.9,0-2.9c0-0.9,0.7-1.2,1.2-0.7c0.5,0.5,0.8,0.2,1.2,0.1c1.2-0.4,2.3-0.5,3.3,0.3
		c0.5,0.4,0.8,0.4,1.3,0.1c2.7-1.7,5.2-0.3,5.2,2.8c0,1,0,2.1,0,3.1c0,0.5-0.2,0.9-0.8,0.9c-0.6,0-0.8-0.3-0.8-0.9
		c0-1.1,0-2.2,0-3.3c0-1.2-0.7-1.9-1.7-1.9c-1.2,0-1.9,0.7-2,1.9c-0.1,1,0,2.1,0,3.1c0,0.6-0.2,1.1-0.9,1c-0.8,0-0.7-0.6-0.7-1.1
		c0-1.1,0-2.3-0.1-3.4c-0.1-0.9-0.6-1.6-1.6-1.6c-1,0-1.8,0.4-2,1.5c-0.3,1.1-0.1,2.2-0.1,3.4c0,0.6,0,1.1-0.8,1.1
		c-0.8,0-0.8-0.6-0.8-1.1C37.2,133.4,37.2,132.5,37.2,131.7C37.2,131.7,37.2,131.7,37.2,131.7z"/>
	<path class="st3" d="M102.4,134.6c-0.6,0.2-1,0.4-1.5,0.5c-1.9,0.4-3.5-0.7-3.8-2.6c-0.2-1.2-0.1-2.4-0.1-3.6c0-0.6,0.2-1,0.9-0.9
		c0.6,0,0.8,0.4,0.8,0.9c0,1,0,2.1,0,3.1c0,1.1,0.7,1.7,1.7,1.7c1,0,1.8-0.4,1.9-1.6c0.1-1,0.1-2.1,0.1-3.1c0-0.6,0.1-1.1,0.9-1.1
		c0.7,0,0.8,0.5,0.8,1c0,2,0.2,4.1-0.1,6.1c-0.2,1.3-0.7,2.5-2,2.9c-1.5,0.5-3.1,0.3-4.5-0.5c-0.4-0.2-0.5-0.5-0.2-1
		c0.2-0.5,0.5-0.6,1-0.3c0.5,0.2,1,0.5,1.5,0.6C101.3,137.1,102.3,136.3,102.4,134.6z"/>
	<path class="st3" d="M142.4,132c0,1,0,1.9,0,2.9c-0.1,2.1-1.3,3.3-3.4,3.3c-0.9,0-1.8-0.1-2.7-0.5c-0.5-0.2-1.1-0.4-0.7-1.2
		c0.3-0.7,0.8-0.5,1.3-0.2c0.8,0.4,1.7,0.7,2.6,0.3c0.5-0.2,0.9-0.5,1.1-1c0.1-0.3,0.2-0.6,0.1-0.8c-0.2-0.3-0.5,0-0.8,0.1
		c-2.6,0.8-4.5-0.4-4.6-3.2c0-1,0-1.9,0-2.9c0-0.6,0.3-0.9,0.9-0.9c0.7,0,0.7,0.5,0.7,1c0,1.1-0.1,2.2,0.1,3.2
		c0.2,1.1,0.8,1.6,1.9,1.5c1.1-0.1,1.7-0.6,1.8-1.7c0.1-0.9,0-1.8,0.1-2.8c0-0.6,0-1.3,0.9-1.3c0.9,0,0.6,0.7,0.6,1.2
		C142.4,130.1,142.4,131.1,142.4,132C142.4,132,142.4,132,142.4,132z"/>
	<path class="st3" d="M143.9,134.5c0-1.1-0.1-2.2,0.1-3.2c0.3-2.3,2.2-3.7,4.5-3.3c2.2,0.3,3.6,2.4,3.2,4.6
		c-0.4,2.2-2.3,3.5-4.6,2.9c-1.5-0.5-1.5,0.2-1.4,1.3c0,0.4,0.1,0.8-0.1,1.2c-0.2,0.3-0.6,0.3-0.9,0.3c-0.5-0.1-0.6-0.4-0.7-0.8
		C143.9,136.4,143.9,135.5,143.9,134.5z M150,131.7c0-1.4-0.9-2.3-2.3-2.3c-1.4,0-2.2,0.9-2.2,2.4c0,1.4,0.9,2.3,2.3,2.3
		C149.1,134.1,150.1,133,150,131.7z"/>
	<path class="st3" d="M28.4,134.2c0-0.9,0-1.8,0-2.6c0.1-1.7,1.1-3,2.6-3.5c1.5-0.5,3-0.3,4.1,1c1.2,1.3,1.3,2.9,0.6,4.4
		c-0.8,1.8-2.9,2.6-4.8,1.7c-1-0.4-1-0.1-1,0.7c0,0.5,0,0.9,0,1.4c0,0.5-0.2,0.8-0.7,0.8c-0.6,0-0.8-0.3-0.8-0.8
		C28.4,136.3,28.4,135.2,28.4,134.2C28.4,134.2,28.4,134.2,28.4,134.2z M32.3,129.4c-1.4,0-2.3,0.8-2.3,2.3c0,1.4,0.9,2.4,2.3,2.4
		c1.3,0,2.2-0.9,2.2-2.4C34.5,130.3,33.7,129.4,32.3,129.4z"/>
	<path class="st3" d="M225.3,135.6c-0.4-0.1-1-0.1-1.3-0.3c-1.1-0.6-1.1,0-1,0.8c0,0.5,0,0.9,0,1.4c0,0.4-0.3,0.7-0.7,0.7
		c-0.5,0-0.8-0.2-0.8-0.7c0-2.2-0.1-4.4,0.1-6.6c0.2-1.7,1.8-2.9,3.7-2.9c1.7,0,3.3,1,3.7,2.6c0.5,1.8-0.2,3.8-1.6,4.6
		C226.6,135.5,226,135.5,225.3,135.6z M222.9,131.8c0,1.4,1,2.4,2.2,2.3c1.3,0,2.2-0.9,2.2-2.3c0-1.5-0.8-2.4-2.3-2.4
		C223.7,129.4,222.9,130.3,222.9,131.8z"/>
	<path class="st3" d="M59.7,131.7c0-0.4,0-0.7,0-1.1c0-2.7-0.4-2.7,2.7-2.7c0.7,0,1.3,0,2,0.2c1.5,0.4,2,1.6,1.3,2.9
		c-0.2,0.4-0.2,0.5,0.1,0.9c1.1,1.3,0.6,2.8-1,3.3c-1.4,0.4-2.9,0.2-4.3,0.2c-0.6,0-0.7-0.5-0.7-1C59.7,133.5,59.7,132.6,59.7,131.7
		C59.7,131.7,59.7,131.7,59.7,131.7z M62.9,134.1c0.7-0.1,1.8,0.2,1.8-0.9c0-1.2-1.2-0.9-2-1c-0.6-0.1-1.3-0.1-1.3,0.9
		C61.3,134.3,62.1,134.1,62.9,134.1z M62.7,131.1c0.6-0.1,1.7,0.1,1.6-0.9c0-1.1-1.2-0.8-2-0.9c-0.7-0.1-1.1,0.2-1.1,1
		C61.3,131.2,62,131.1,62.7,131.1z"/>
	<path class="st3" d="M182.1,131.7c0-0.8,0-1.7,0-2.5c0-0.6-0.1-1.3,0.8-1.2c0.9,0,0.8,0.7,0.8,1.3c0,1.2,0,2.3,0,3.5
		c0,0.9,0.3,1.3,1.3,1.4c2.4,0,2.4,0.1,2.4-2.3c0-0.8,0-1.7,0-2.5c0-0.6-0.2-1.3,0.7-1.3c1,0,0.8,0.7,0.9,1.4c0,0.9,0,1.8,0,2.8
		c0,0.8-0.2,1.6,0.8,2.3c0.6,0.5,0.4,1.7,0.1,2.6c-0.1,0.3-0.5,0.2-0.8,0.2c-0.4,0-0.5-0.3-0.5-0.6c0-1-0.6-1.1-1.4-1.1
		c-1.1,0-2.3,0-3.4,0c-1.7,0-1.7,0-1.7-1.8C182.1,133,182.1,132.4,182.1,131.7z"/>
	<path class="st3" d="M194.5,135.5c-2.2,0-3.4-0.9-4-2.6c-0.5-1.6,0-3.3,1.4-4.3c1.3-0.9,3-0.9,4.3,0c0.3,0.2,0.6,0.5,0.9,0.9
		c1.1,1.6,0.9,2.2-1,2.6c-1,0.2-2,0.4-3.1,0.6c-0.3,0.1-0.7,0-0.7,0.4c0,0.3,0.3,0.5,0.6,0.6c0.9,0.6,1.9,0.6,2.8,0.1
		c0.5-0.3,1-0.5,1.4,0.2c0.3,0.6-0.3,0.9-0.7,1.1C195.7,135.4,195,135.5,194.5,135.5z M194.2,129.3c-1,0.1-1.7,0.4-2.1,1.3
		c-0.2,0.6-0.2,1,0.6,0.8c0.7-0.2,1.5-0.3,2.2-0.4c0.4-0.1,1,0,1-0.5c0-0.5-0.5-0.8-0.9-1C194.7,129.4,194.4,129.4,194.2,129.3z"/>
	<path class="st3" d="M177.1,131.5c0,1,0,2.1,0,3.1c0,0.8-0.6,1-1.1,0.7c-0.6-0.4-1-0.2-1.6,0c-2.4,0.7-4.1-0.4-4.4-2.8
		c-0.1-1.2-0.1-2.4-0.1-3.6c0-0.6,0.2-1,0.8-1c0.7,0,0.8,0.4,0.9,1c0,1.1,0,2.3,0,3.4c0,1.1,0.5,1.7,1.7,1.8c1.1,0.1,1.9-0.6,2-1.6
		c0.1-0.9,0-1.8,0.1-2.8c0.1-0.7-0.4-1.7,0.8-1.7c1.3,0,0.8,1.1,0.9,1.8C177.2,130.3,177.2,130.9,177.1,131.5
		C177.2,131.5,177.1,131.5,177.1,131.5z"/>
	<path class="st3" d="M112.4,131.7c0,1,0,1.9,0,2.9c0,0.6-0.3,0.9-0.9,0.9c-0.6,0-0.7-0.4-0.8-0.9c0-1.3,0-2.6,0-3.9
		c0-0.9-0.4-1.2-1.3-1.2c-0.8,0-1.4,0-1.5,1.2c-0.1,1.3-0.1,2.6-0.7,3.8c-0.3,0.8-0.9,1.2-1.7,1.1c-0.3,0-0.7-0.1-0.8-0.5
		c-0.1-0.4,0-0.7,0.4-0.8c1.1-0.3,1.1-1.2,1.2-2.1c0.1-1,0.1-1.9,0.1-2.9c0-0.9,0.3-1.3,1.3-1.3c1.2,0,2.4,0,3.6,0
		c0.8,0,1.1,0.4,1.1,1.1C112.4,129.9,112.4,130.8,112.4,131.7C112.4,131.7,112.4,131.7,112.4,131.7z"/>
	<path class="st3" d="M79.7,135.5c-2.4,0-4-1.6-3.9-3.9c0-2.1,1.8-3.7,3.9-3.7c2.2,0,3.9,1.8,3.9,3.9
		C83.6,134,81.9,135.5,79.7,135.5z M81.9,131.7c0-1.4-0.8-2.4-2.1-2.4c-1.3,0-2.3,1-2.3,2.4c0,1.4,1,2.4,2.3,2.4
		C81,134.1,81.8,133.2,81.9,131.7z"/>
	<path class="st3" d="M23.6,135.5c-2.3,0-3.9-1.6-3.8-3.8c0-2.1,1.7-3.8,3.9-3.8c2.2,0,3.9,1.6,3.9,3.9
		C27.5,134.1,26,135.5,23.6,135.5z M21.4,131.8c0,1.4,1,2.3,2.3,2.3c1.3,0,2.2-1,2.2-2.4c0-1.5-0.8-2.4-2.3-2.3
		C22.2,129.5,21.4,130.3,21.4,131.8z"/>
	<path class="st3" d="M74.6,131.7c0,1,0,1.9,0,2.9c0,0.5-0.2,0.9-0.8,0.9c-0.6,0-0.7-0.4-0.8-0.9c-0.1-0.6,0.3-1.5-0.3-1.9
		c-0.8-0.5-1.8-0.2-2.7-0.2c-0.5,0-0.7,0.4-0.7,0.9c0,0.4,0,0.8,0,1.3c0,0.5-0.3,0.8-0.9,0.8c-0.5,0-0.8-0.3-0.8-0.8
		c0-2,0-3.9,0-5.9c0-0.5,0.3-0.8,0.9-0.8c0.6,0,0.7,0.4,0.8,0.9c0.3,2.3,0.3,2.3,2.6,2.3c0.9,0,1.2-0.4,1.1-1.2c0-0.4,0-0.8,0-1.3
		c0-0.4,0.3-0.7,0.7-0.7c0.5,0,0.8,0.2,0.8,0.7C74.6,129.7,74.6,130.7,74.6,131.7C74.6,131.7,74.6,131.7,74.6,131.7z"/>
	<path class="st3" d="M11.7,131.6c0-0.9,0-1.8,0-2.8c0-0.6,0.2-1,0.8-1c1.8,0,3.5,0,5.3,0c0.6,0,0.9,0.4,0.9,1c0,1.9,0,3.8,0,5.6
		c0,0.5-0.2,0.9-0.8,0.9c-0.7,0-0.8-0.4-0.8-1c0-1.3,0-2.5,0-3.8c0-0.9-0.2-1.3-1.2-1.3c-2.5-0.1-2.5-0.1-2.5,2.5c0,0.9,0,1.8,0,2.6
		c0,0.6-0.2,1-0.9,0.9c-0.7,0-0.7-0.5-0.7-0.9C11.8,133.5,11.8,132.6,11.7,131.6C11.8,131.6,11.7,131.6,11.7,131.6z"/>
	<path class="st3" d="M152.8,131.7c0-1,0-1.9,0-2.9c0-0.5,0.2-0.9,0.8-0.9c0.6,0,0.7,0.4,0.8,0.9c0.2,2.3,0.2,2.2,2.5,2.3
		c1.1,0,1.6-0.3,1.4-1.4c0-0.2,0-0.4,0-0.6c0-0.6,0-1.1,0.8-1.1c0.7,0,0.8,0.5,0.8,1.1c0,1.8,0,3.6,0,5.4c0,0.5-0.1,1-0.8,1
		c-0.7,0-0.8-0.4-0.8-1c0-0.3,0-0.7,0-1c0-0.7-0.3-1-1-1c-0.3,0-0.7,0-1,0c-1.8,0-1.8,0-1.9,1.8c0,0.5,0,1.2-0.8,1.2
		c-0.9,0-0.8-0.7-0.8-1.2C152.8,133.4,152.8,132.5,152.8,131.7C152.8,131.7,152.8,131.7,152.8,131.7z"/>
	<path class="st3" d="M58,131.6c0,0.9,0,1.8,0,2.8c0,1-0.6,1.4-1.4,0.9c-0.5-0.3-0.7-0.1-1.1,0c-2.7,0.9-4.6-0.4-4.6-3.2
		c0-1.1,0-2.2,0-3.3c0-0.5,0.1-0.8,0.7-0.8c0.6,0,0.9,0.3,0.9,0.8c0,1.1,0,2.2,0,3.3c0,1.4,0.5,2,1.6,2.1c1.1,0.1,2-0.6,2.2-1.8
		c0.1-1,0.1-2.1,0.1-3.1c0-0.6-0.1-1.2,0.8-1.3c0.9,0,0.8,0.6,0.8,1.2C58,130,58,130.8,58,131.6C58,131.6,58,131.6,58,131.6z"/>
	<path class="st3" d="M205.9,131.8c0,0.9,0,1.8,0,2.8c0,0.5-0.1,0.9-0.8,0.9c-0.6,0-0.8-0.4-0.8-0.9c-0.3-2.2-0.3-2.2-2.6-2.1
		c-0.8,0-1.2,0.3-1.1,1.1c0,0.3,0,0.6,0,0.9c0,0.5-0.1,1-0.8,1c-0.7,0-0.8-0.5-0.8-1.1c0-1.8,0-3.6,0-5.4c0-0.5,0.1-1,0.8-1
		c0.7,0,0.8,0.5,0.8,1c0.2,2.2,0.2,2.2,2.5,2.2c0.9,0,1.3-0.2,1.3-1.2c0-0.7-0.5-2,0.9-1.9c1.2,0.1,0.6,1.2,0.7,1.9
		C206,130.5,205.9,131.2,205.9,131.8C205.9,131.8,205.9,131.8,205.9,131.8z"/>
	<path class="st3" d="M168.5,131.7c0,1,0,1.9,0,2.9c0,0.7-0.5,1.1-1.1,0.8c-0.7-0.3-1.3-0.1-1.9,0c-2.4,0.5-4-0.7-4.1-3.2
		c0-1.1,0-2.3,0-3.4c0-0.5,0.2-0.9,0.8-0.9c0.6,0,0.8,0.4,0.8,0.9c0,1,0,2.1,0,3.1c0.1,1.5,0.7,2.1,1.9,2.1c1.2,0,1.9-0.8,1.9-2.3
		c0-1,0-2,0-3c0-0.5,0.2-0.9,0.8-0.9c0.6,0,0.8,0.4,0.8,0.9C168.5,129.8,168.5,130.7,168.5,131.7z"/>
	<path class="st3" d="M89.6,131.5c0-0.9,0-1.8,0-2.8c0-0.6,0.3-0.9,0.8-0.8c0.5,0,0.7,0.3,0.7,0.8c0,0.4,0,0.8,0,1.1
		c0,0.4,0,0.8,0.4,0.9c0.5,0.1,0.9,0,1.2-0.4c0.5-0.6,1-1.2,1.5-1.9c0.3-0.3,0.6-0.6,1-0.7c0.3,0,0.6-0.1,0.8,0.2
		c0.2,0.3-0.1,0.5-0.2,0.7c0,0-0.1,0.1-0.1,0.1c-0.6,0.9-1.9,1.6-1.8,2.7c0.1,1,1.2,1.7,1.8,2.6c0.2,0.3,0.9,0.7,0.4,1.1
		c-0.4,0.3-1.1,0.2-1.5-0.2c-0.5-0.5-1-1.1-1.4-1.7c-0.4-0.5-0.8-1.2-1.6-0.9c-0.8,0.3-0.4,1-0.5,1.5c0,0.2,0,0.4,0,0.6
		c0,0.5-0.3,0.8-0.8,0.8c-0.5,0-0.8-0.3-0.8-0.8C89.6,133.6,89.6,132.6,89.6,131.5C89.6,131.5,89.6,131.5,89.6,131.5z"/>
	<path class="st3" d="M117.2,135.5c-2.3,0-3.3-1-3.3-3.3c0-1.1,0-2.3,0-3.4c0-0.5,0.2-0.9,0.8-0.9c0.6,0,0.8,0.4,0.8,0.9
		c-0.1,1.2,0.2,1.4,1.5,1.1c1.9-0.5,3.5,0.6,3.6,2.3C120.8,134.3,119.6,135.5,117.2,135.5z M118.9,132.7c0-1-0.6-1.5-1.7-1.5
		c-1.1,0-1.7,0.6-1.7,1.5c0,0.9,0.8,1.6,1.7,1.6C118.2,134.3,119,133.6,118.9,132.7z"/>
	<path class="st3" d="M7.8,135.5c-2,0-3.3-0.8-3.8-2.4c-0.6-1.6-0.1-3.4,1.2-4.4c1.3-1,3.3-1.1,4.6-0.2c0.4,0.3,1.2,0.6,0.7,1.3
		c-0.4,0.6-0.9,0.4-1.5,0c-1-0.7-2.3-0.5-3.1,0.3c-0.7,0.8-0.7,2.3,0,3.1c0.8,1,1.9,1.1,3.1,0.3c0.5-0.4,1-0.5,1.4,0.1
		c0.5,0.7-0.2,1-0.6,1.3C9.2,135.4,8.4,135.5,7.8,135.5z"/>
	<path class="st3" d="M173.7,127.2c-1,0-1.7-0.2-2.2-1.1c-0.2-0.3-0.3-0.7,0-0.9c0.3-0.2,0.7-0.1,0.9,0.2c0.8,1,1.6,1,2.3,0
		c0.2-0.3,0.5-0.3,0.8-0.1c0.4,0.2,0.3,0.6,0.1,0.9C175.2,127,174.5,127.2,173.7,127.2z"/>
	<path class="st3" d="M346.6,112.3c0,6.5,0,12.7,0,19c0,2.8,0.2,2.4-2.4,2.4c-3.3,0-6.7,0-10,0c-1.1,0-1.4-0.4-1.4-1.5
		c0-13.3-0.1-26.5,0.1-39.8c0.1-11.9,8.5-21.1,20.6-22.9c6.2-0.9,12.4-0.5,18.1,2.4c7,3.6,10.7,9.5,11.8,17.1
		c0.7,5,0.4,9.9-1.5,14.7c-3.2,8-9.2,12.4-17.7,13.6c-4,0.6-7.9,0.3-11.7-1.2C350.2,115.3,348.4,114,346.6,112.3z M358.3,80.7
		c-3.6-0.1-6.5,1-8.8,3.6c-3.5,4.1-3.9,8.9-2.4,13.8c2.8,10,15,9.8,19.4,4.6c2.6-3.1,3.5-6.6,3.3-10.5
		C369.5,85.4,364.7,80.7,358.3,80.7z"/>
	<path class="st3" d="M403.3,93.5c0,7.3,0,14.5,0,21.8c0,1.3-0.4,1.7-1.6,1.6c-3.4-0.1-6.9,0-10.3,0c-2,0-2,0-2-1.9c0-12,0-24,0-36
		c0-2.5,0-5.1,0-7.6c0-1.1,0.4-1.5,1.5-1.4c3.6,0,7.3,0,10.9,0c1.1,0,1.5,0.3,1.5,1.5C403.3,78.8,403.3,86.1,403.3,93.5z"/>
	<path class="st3" d="M397,63.7c-3,0-5.1-0.7-6.9-2.5c-3.3-3.4-2.9-8.7,1.1-11.4c3.3-2.3,8.5-2,11.6,0.7c4.2,3.7,2.5,10.8-2.9,12.7
		C398.7,63.6,397.6,63.8,397,63.7z"/>
</g>
</svg>
